{
  "type": "service_account",
  "project_id": "doxtrodevelopment",
  "private_key_id": "a7ddcff87e296f3a8b7b20bb29bba3a8c7e8053c",
  "private_key": "-----BEGIN PRIVATE KEY-----\nMIIEvAIBADANBgkqhkiG9w0BAQEFAASCBKYwggSiAgEAAoIBAQDeUZp4JyQA/n90\nIbTQ9fNV+dqFHwTcHdqTYlWZW9DEMhXuAKOLTX5YdGL9CZH3QQIt6KGe0ENFw8ro\n4XD15Tt10NUmGZk+7Vo6iFkkC/nF9vcQdLuCFd38dtT+2A7K3ekczKd6UKlTiqBf\nqDZ195Cl60lPz5v5F4loklKO0ygKL2MsQTnhO1iQO/+t06xhaeKdlckFes5uc1qR\nUa/4P6rOVwA8jpxsk2+WgOl+mpDLfuxjPu6mRjxjoucx0Wx4/Ntf/GFP8AqpkTWx\n1fd54P4YI4MSPQRs1QY4+nG/LIy0HyOvmyLGZyGtNYIytBIn8LBZdJETrv5z4vYp\nkISJv8frAgMBAAECggEAEleLNgSMrORSYaNyRpc0J1DA3aDMhtiTsvs28rsngzha\npNM6qwCOvv+DNzs15r9fTahWxUKLelMIB6Sp7C+oczTykP0lrpJoklGzgQzX46RX\nh+0Jl1b0hKLNOeVbexNJ601bN/U1syXJy3qWW688KOQ7nTEUvj1Z4d3In+397LEK\n0JCFwo5reXtzkwPLUlDc5t7x1I0HeI/+mkUOmggwxUuFo2NlWxLAYAUS6+IojXH+\n2mrlG3AsXRBCBVN3M+apzEuc0XM9csyYq6uKttAcjMLia3Q9MMfJyZm/HIoFjDh0\nW03zPBiTOxsePnWAksbJCxgr4RmUCvPxE36W5/RXwQKBgQDw8QQs+PoiIf9QoG7G\nedpZt24lN1CqYxVyuhPiOtjnDo5e5l18fI/wJylGE6mtnI+3S6JedYK9q/tmdbK+\nOQRRJdvAidhVFw6KOxMk2/gDw/I3RRK5hH+2aBQSgqzpRWK4LVo3Pw8803Ntg5b3\naab1Y89NS31ADcgDMzowO4MGCwKBgQDsNqFEQEMzHvu47PHUzrH+C7Ufu9ktlI23\noUh2bfbxUgWRVoWOCs5y8ke7nROeaIdQ6YIqqjFk/06JIoGb3L1rQ8RAIzgxhbmR\npdAb2Cdo+4pMTmOA4ZBTTRxQEnLyEBdYJ9sBfrxAhxNPXaSnlaXr68mUlr5OrzVR\nxpS2YX7RoQKBgEwVX6Mv8BTNNYlpT/G+0tOX1+FKqV9UsJYs6lB7ErlL4GtZRVYl\nI3LLev4VAXTARqWz7Y70fpeUcmu1aP8mlBVn5g/Tt4uPH1lJNE9kYtoViywm1LXe\ngFHCZew+dYmoDndoYt+lOxOTFhUUA50XMNC2duTKnL+YWnugNpS6hjJnAoGAB+Lb\nB3hNxgsmxEnE2SH9d0nUxjZzTb5D7PmJfcq2D+B5Jx0IYHGj6tqD4pOf8A31VpI1\nMk90TrbnXFS2lwmLmWUtzCZg3eZlB6PNiuBwkGS1fU6wq8DcHKvaYiH7jHFVFjBe\nc3JTvqPD1UZ/FMk+PN4mYLuXpvDaitxiYqRmo4ECgYBquuE3u6gByTTb6Kg3YJxY\n6Z8nHh1+gNG0h/oPpLqM2YUjEzZWvLYlvzrDurzgVk+tWcorH2zPwc+Czew922bA\nb5bp3J7yDIdRH2OHtHGEihBEwHQGugEylB9cs+CY9kwcd/VjwaKmAMkBjLvXzjYh\nU4RlArKHnvi4/zQjvN8q+w==\n-----END PRIVATE KEY-----\n",
  "client_email": "firebase-adminsdk-yfkct@doxtrodevelopment.iam.gserviceaccount.com",
  "client_id": "115235922215246752067",
  "auth_uri": "https://accounts.google.com/o/oauth2/auth",
  "token_uri": "https://accounts.google.com/o/oauth2/token",
  "auth_provider_x509_cert_url": "https://www.googleapis.com/oauth2/v1/certs",
  "client_x509_cert_url": "https://www.googleapis.com/robot/v1/metadata/x509/firebase-adminsdk-yfkct%40doxtrodevelopment.iam.gserviceaccount.com"
}
