[
  {
    "type": "post",
    "url": "user/create",
    "title": "Create user",
    "group": "User",
    "description": "<p>Create user</p>",
    "name": "create",
    "version": "0.0.1",
    "parameter": {
      "fields": {
        "Parameter": [
          {
            "group": "Parameter",
            "type": "string",
            "optional": false,
            "field": "mobile",
            "description": "<p>mobile number</p>"
          }
        ]
      },
      "examples": [
        {
          "title": "Request-Example",
          "content": "{\n  \"mobile\": \"+911111111111\"\n}",
          "type": "json"
        }
      ]
    },
    "sampleRequest": [
      {
        "url": "http://localhost:3000/api/user/create"
      }
    ],
    "success": {
      "fields": {
        "Success 200": [
          {
            "group": "Success 200",
            "type": "string",
            "optional": false,
            "field": "message",
            "description": "<p>message related to response</p>"
          },
          {
            "group": "Success 200",
            "type": "string",
            "optional": false,
            "field": "data",
            "description": "<p>user related data</p>"
          }
        ]
      },
      "examples": [
        {
          "title": "Success-Response",
          "content": "{\n  \"data\": {\n      \"id\": \"56c586695413730f61b530db\"\n  },\n  \"message\": \"OTP sent to registered mobile number.\"\n}",
          "type": "json"
        }
      ]
    },
    "error": {
      "fields": {
        "Error 200": [
          {
            "group": "Error 200",
            "type": "string",
            "optional": false,
            "field": "message",
            "description": "<p>message related to response</p>"
          }
        ]
      },
      "examples": [
        {
          "title": "Error-Response",
          "content": "{\n  \"error\": \"Error: Please provide mobile number.\"\n}",
          "type": "json"
        },
        {
          "title": "Error-Response",
          "content": "{\n  \"error\": \"Error: Your account has been deactivated by Admin. Please contact Support Team.\"\n}",
          "type": "json"
        },
        {
          "title": "Error-Response",
          "content": "{\n  \"error\": \"Error: Failed to send OTP to registered number.Please try again.\"\n}",
          "type": "json"
        },
        {
          "title": "Error-Response",
          "content": "{\n  \"error\": \"Error: Failed to create user.\"\n}",
          "type": "json"
        }
      ]
    },
    "filename": "docs/user.js",
    "groupTitle": "User"
  },
  {
    "type": "post",
    "url": "user/verify",
    "title": "Verify user",
    "group": "User",
    "description": "<p>Verify user</p>",
    "name": "verify",
    "version": "0.0.1",
    "parameter": {
      "fields": {
        "Parameter": [
          {
            "group": "Parameter",
            "type": "string",
            "optional": false,
            "field": "userId",
            "description": "<p>id of user</p>"
          },
          {
            "group": "Parameter",
            "type": "string",
            "optional": false,
            "field": "otp",
            "description": "<p>otp</p>"
          }
        ]
      },
      "examples": [
        {
          "title": "Request-Example",
          "content": "{\n  \"userId\" : \"592d1c7afd590a237760bb0f\",\n  \"otp\" : \"136992\"\n}",
          "type": "json"
        }
      ]
    },
    "sampleRequest": [
      {
        "url": "http://localhost:3000/api/user/verify"
      }
    ],
    "success": {
      "fields": {
        "Success 200": [
          {
            "group": "Success 200",
            "type": "string",
            "optional": false,
            "field": "message",
            "description": "<p>message related to response</p>"
          },
          {
            "group": "Success 200",
            "type": "string",
            "optional": false,
            "field": "data",
            "description": "<p>user related data</p>"
          }
        ]
      },
      "examples": [
        {
          "title": "Success-Response",
          "content": "{\n   \"data\": {\n   \"_id\": \"592d1c7afd590a237760bb0f\",\n   \"mobile\": \"9740324448\",\n   \"accountActivationTime\": \"2017-05-30T07:17:11.409Z\",\n   \"accountStatus\": \"active\",\n   \"tag\": \"User\"\n   },\n    \"message\": \"Account verified successfully.\"\n  }",
          "type": "json"
        }
      ]
    },
    "error": {
      "fields": {
        "Error 400": [
          {
            "group": "Error 400",
            "type": "string",
            "optional": false,
            "field": "message",
            "description": "<p>message related to error</p>"
          }
        ]
      },
      "examples": [
        {
          "title": "Error-Response",
          "content": "{\n  \"error\": \"Error: Please provide valid data.\"\n}",
          "type": "json"
        },
        {
          "title": "Error-Response",
          "content": "{\n  \"error\": \"Error: Invalid userId.\"\n}",
          "type": "json"
        },
        {
          "title": "Error-Response",
          "content": "{\n  \"error\": \"Error: OTP Expired.Please try again.\"\n}",
          "type": "json"
        },
        {
          "title": "Error-Response",
          "content": "{\n  \"error\": \"Error: Invalid OTP.\"\n}",
          "type": "json"
        },
        {
          "title": "Error-Response",
          "content": "{\n  \"error\": \"Error: Failed to verify user. Please try again.\"\n}",
          "type": "json"
        }
      ]
    },
    "filename": "docs/user.js",
    "groupTitle": "User"
  }
]
